stopTime 168
warmUpTime 16.0

lorryVolume 24
lorryMaxLoad 8500
binServiceTime 300
binVolume 3.0
disposalDistrRate 4.0
disposalDistrShape 1
bagVolume 0.04
bagWeightMin 3
bagWeightMax 10
noAreas 3

areaIdx 0 serviceFreq 0.084 thresholdVal 0.6 noBins 15
roadsLayout
 0	13	-1	-1	 6	-1	-1	-1	-1	-1	-1	-1	-1	-1	-1	-1
13	 0	11	-1	-1	 1	-1	-1	-1	-1	-1	-1	-1	-1	-1	-1
-1	11	 0	15	-1	-1	 3	-1	-1	-1	-1	-1	-1	-1	-1	-1
-1	-1	15	 0	-1	-1	-1	 5	-1	-1	-1	-1	-1	-1	-1	-1
 6	-1	-1	-1	 0	14	-1	-1	 1	-1	-1	-1	-1	-1	-1	-1
-1	 1	-1	-1	14	 0	 3	-1	-1	10	-1	-1	-1	-1	-1	-1
-1	-1	 3	-1	-1	 3	 0	 2	-1	-1	 9	-1	-1	-1	-1	-1
-1	-1	-1	 5	-1	-1	 2	 0	-1	-1	-1	12	-1	-1	-1	-1
-1	-1	-1	-1	 1	-1	-1	-1	 0	13	-1	-1	13	-1	-1	-1
-1	-1	-1	-1	-1	10	-1	-1	13	 0	 1	-1	-1	 1	-1	-1
-1	-1	-1	-1	-1	-1	 9	-1	-1	 1	 0	 2	-1	-1	 8	-1
-1	-1	-1	-1	-1	-1	-1	12	-1	-1	 2	 0	-1	-1	-1	 4
-1	-1	-1	-1	-1	-1	-1	-1	13	-1	-1	-1	 0	12	-1	-1
-1	-1	-1	-1	-1	-1	-1	-1	-1	 1	-1	-1	12	 0	 8	-1
-1	-1	-1	-1	-1	-1	-1	-1	-1	-1	 8	-1	-1	 8	 0	14
-1	-1	-1	-1	-1	-1	-1	-1	-1	-1	-1	 4	-1	-1	14	 0

areaIdx 1 serviceFreq 0.05 thresholdVal 0.9 noBins 8
roadsLayout
 0	 5	-1	 4	-1	-1	-1	-1	-1	
 5	 0	 2	-1	 4	-1	-1	-1	-1	
-1	 2	 0	-1	-1	 1	-1	-1	-1	
 4	-1	-1	 0	 4	-1	 3	-1	-1	
-1	 4	-1	 4	 0	 1	-1	 8	-1	
-1	-1	 1	-1	 1	 0	-1	-1	 3	
-1	-1	-1	 3	-1	-1	 0	 5	-1	
-1	-1	-1	-1	 8	-1	 5	 0	 1	
-1	-1	-1	-1	-1	 3	-1	 1	 0

